<html>
	<head>
		<style>
			.table { border:thin black solid; margin:2pt; border-width:thick;}
			body{
				font-family:Tahoma, Geneva, sans-serif; 
				font-size:12px; 
				/*margin: 3em;*/
				margin: 0cm 2cm 2cm 2cm;
			}
			div {
			  /*background: #EDEDED;
			  border: solid 1px #CCC;
			  width: 650px;*/
			  width: 570px;
			
			}

			.break-word {
			  word-wrap: break-word;
			}
			
			table.tabel2 {
				border: 1pt solid black;
				border-collapse: collapse;
			}
			table.tabel2 td,table.tabel2 th	 {
				border: 1pt solid black;
				}
			table.tabel2 th	{
			background-color:#E0E0E0;	
			}
		</style>
	</head>
	<body>